singlecycle.vcd
$date
	Thu Nov 17 01:37:15 2022
$end
$version
	Icarus Verilog
$end
$timescale
	1ps
$end
$scope module SingleCycleProcTest_v $end
$var wire 64 ! currentPC [63:0] $end
$var wire 64 " MemtoRegOut [63:0] $end
$var reg 1 # CLK $end
$var reg 1 $ Reset_L $end
$var reg 8 % passed [7:0] $end
$var reg 64 & startPC [63:0] $end
$var reg 16 ' watchdog [15:0] $end
$scope module uut $end
$var wire 1 # CLK $end
$var wire 1 $ resetl $end
$var wire 64 ( startpc [63:0] $end
$var wire 1 ) zero $end
$var wire 1 * uncond_branch $end
$var wire 3 + signop [2:0] $end
$var wire 5 , rn [4:0] $end
$var wire 5 - rm [4:0] $end
$var wire 1 . regwrite $end
$var wire 64 / regoutB [63:0] $end
$var wire 64 0 regoutA [63:0] $end
$var wire 1 1 reg2loc $end
$var wire 5 2 rd [4:0] $end
$var wire 11 3 opcode [10:0] $end
$var wire 64 4 nextpc [63:0] $end
$var wire 1 5 memwrite $end
$var wire 1 6 memread $end
$var wire 1 7 mem2reg $end
$var wire 32 8 instruction [31:0] $end
$var wire 64 9 extimm [63:0] $end
$var wire 64 : datamux [63:0] $end
$var wire 1 ; branch $end
$var wire 1 < alusrc $end
$var wire 64 = aluout [63:0] $end
$var wire 64 > alumux [63:0] $end
$var wire 4 ? aluctrl [3:0] $end
$var wire 64 @ MemtoRegOut [63:0] $end
$var reg 64 A currentpc [63:0] $end
$scope module ALU $end
$var wire 64 B BusB [63:0] $end
$var wire 1 ) Zero $end
$var wire 64 C BusA [63:0] $end
$var wire 4 D ALUCtrl [3:0] $end
$var reg 64 E BusW [63:0] $end
$upscope $end
$scope module NPCL $end
$var wire 1 ) ALUZero $end
$var wire 64 F CurrentPC [63:0] $end
$var wire 64 G NextPC [63:0] $end
$var wire 1 * Uncondbranch $end
$var wire 64 H SignExtImm64 [63:0] $end
$var wire 1 ; Branch $end
$var reg 64 I NextPC_intermediate [63:0] $end
$upscope $end
$scope module RegFile $end
$var wire 64 J BusA [63:0] $end
$var wire 64 K BusB [63:0] $end
$var wire 64 L BusW [63:0] $end
$var wire 1 # Clk $end
$var wire 5 M RA [4:0] $end
$var wire 5 N RB [4:0] $end
$var wire 5 O RW [4:0] $end
$var wire 1 . RegWr $end
$upscope $end
$scope module SignExtender $end
$var wire 26 P Imm [25:0] $end
$var wire 3 Q Ctrl [2:0] $end
$var wire 64 R BusImm [63:0] $end
$var reg 64 S res [63:0] $end
$upscope $end
$scope module control $end
$var wire 11 T opcode [10:0] $end
$var reg 4 U aluop [3:0] $end
$var reg 1 < alusrc $end
$var reg 1 ; branch $end
$var reg 1 7 mem2reg $end
$var reg 1 6 memread $end
$var reg 1 5 memwrite $end
$var reg 1 1 reg2loc $end
$var reg 1 . regwrite $end
$var reg 3 V signop [2:0] $end
$var reg 1 * uncond_branch $end
$upscope $end
$scope module dmem $end
$var wire 64 W Address [63:0] $end
$var wire 1 # Clock $end
$var wire 1 6 MemoryRead $end
$var wire 1 5 MemoryWrite $end
$var wire 64 X WriteData [63:0] $end
$var reg 64 Y ReadData [63:0] $end
$scope task initset $end
$var reg 64 Z addr [63:0] $end
$var reg 64 [ data [63:0] $end
$upscope $end
$upscope $end
$scope module imem $end
$var wire 64 \ Address [63:0] $end
$var reg 32 ] Data [31:0] $end
$upscope $end
$upscope $end
$scope task allPassed $end
$var reg 8 ^ numTests [7:0] $end
$var reg 8 _ passed [7:0] $end
$upscope $end
$scope task passTest $end
$var reg 64 ` actualOut [63:0] $end
$var reg 64 a expectedOut [63:0] $end
$var reg 8 b passed [7:0] $end
$var reg 257 c testType [256:0] $end
$upscope $end
$upscope $end
$enddefinitions $end
#0
$dumpvars
bx c
bx b
bx a
bx `
bx _
bx ^
bx ]
bx \
b0 [
b100000 Z
bx Y
bx X
bx W
bx V
bx U
bx T
bx S
bx R
bx Q
bx P
bx O
bx N
bx M
bx L
bx K
bx J
bx I
bx H
bx G
bx F
bx E
bx D
bx C
bx B
bx A
bx @
bx ?
bx >
bx =
x<
x;
bx :
bx 9
bx 8
x7
x6
x5
bx 4
bx 3
bx 2
x1
bx 0
bx /
x.
bx -
bx ,
bx +
x*
x)
b0 (
b0 '
b0 &
b0 %
1$
0#
bx "
bx !
$end
#60000
1#
#120000
b1 '
0#
#121000
0$
#180000
1#
#240000
b10 '
0#
#243000
b0 >
b0 B
b0 9
b0 H
b0 R
b0 S
b1 +
b1 Q
b1 V
b10 ?
b10 D
b10 U
0*
0;
05
16
1.
17
1<
b0x00x ,
b0x00x N
b10000000000001111101001 P
b11111000010 3
b11111000010 T
b11111 -
b11111 M
b1001 2
b1001 O
b100 4
b100 G
b100 I
b11111000010000000000001111101001 8
b11111000010000000000001111101001 ]
b0 !
b0 A
b0 F
b0 \
#245000
1)
b0 =
b0 E
b0 W
b0 0
b0 C
b0 J
#300000
b1 :
b1 L
b1 "
b1 @
b1 Y
1$
1#
#360000
b11 '
0#
#363000
0)
b1000 =
b1000 E
b1000 W
b1000 >
b1000 B
b1000 9
b1000 H
b1000 R
b1000 S
b0x0x0 ,
b0x0x0 N
b10000001000001111101010 P
b1010 2
b1010 O
b1000 4
b1000 G
b1000 I
b11111000010000001000001111101010 8
b11111000010000001000001111101010 ]
b100 !
b100 A
b100 F
b100 \
#420000
b1010 :
b1010 L
b1010 "
b1010 @
b1010 Y
1#
#480000
b100 '
0#
#483000
b10000 =
b10000 E
b10000 W
b10000 >
b10000 B
b10000 9
b10000 H
b10000 R
b10000 S
b0x0x1 ,
b0x0x1 N
b10000010000001111101011 P
b1011 2
b1011 O
b1100 4
b1100 G
b1100 I
b11111000010000010000001111101011 8
b11111000010000010000001111101011 ]
b1000 !
b1000 A
b1000 F
b1000 \
#540000
b101 :
b101 L
b101 "
b101 @
b101 Y
1#
#600000
b101 '
0#
#603000
b11000 =
b11000 E
b11000 W
b11000 >
b11000 B
b11000 9
b11000 H
b11000 R
b11000 S
b0xx0x ,
b0xx0x N
b10000011000001111101100 P
b1100 2
b1100 O
b10000 4
b10000 G
b10000 I
b11111000010000011000001111101100 8
b11111000010000011000001111101100 ]
b1100 !
b1100 A
b1100 F
b1100 \
#660000
b111111111011111010100111110111101010110110111110111011111111 :
b111111111011111010100111110111101010110110111110111011111111 L
b111111111011111010100111110111101010110110111110111011111111 "
b111111111011111010100111110111101010110110111110111011111111 @
b111111111011111010100111110111101010110110111110111011111111 Y
1#
#720000
b110 '
0#
#723000
b100000 =
b100000 E
b100000 W
b100000 >
b100000 B
b100000 9
b100000 H
b100000 R
b100000 S
b0xxxx ,
b0xxxx N
b10000100000001111101101 P
b1101 2
b1101 O
b10100 4
b10100 G
b10100 I
b11111000010000100000001111101101 8
b11111000010000100000001111101101 ]
b10000 !
b10000 A
b10000 F
b10000 \
#780000
b0 :
b0 L
b0 "
b0 @
b0 Y
1#
#840000
b111 '
0#
#843000
x)
bx =
bx E
bx W
bx :
bx L
bx >
bx B
bx +
bx Q
bx V
b1 ?
b1 D
b1 U
06
07
0<
01
b1011 ,
b1011 N
b10000010110000000101001010 P
b10101010000 3
b10101010000 T
b1010 -
b1010 M
b1010 2
b1010 O
b11000 4
b11000 G
b11000 I
b10101010000010110000000101001010 8
b10101010000010110000000101001010 ]
b10100 !
b10100 A
b10100 F
b10100 \
#845000
0)
b1111 :
b1111 L
b101 >
b101 B
b1111 =
b1111 E
b1111 W
b101 /
b101 K
b101 X
b1010 0
b1010 C
b1010 J
#900000
1#
#960000
b1000 '
0#
#963000
1)
b0 :
b0 L
b0 =
b0 E
b0 W
b0 ?
b0 D
b0 U
b1010 ,
b1010 N
b10000010100000000110001100 P
b10001010000 3
b10001010000 T
b1100 -
b1100 M
b1100 2
b1100 O
b11100 4
b11100 G
b11100 I
b10001010000010100000000110001100 8
b10001010000010100000000110001100 ]
b11000 !
b11000 A
b11000 F
b11000 \
#965000
0)
b1111 :
b1111 L
b1111 >
b1111 B
b1111 =
b1111 E
b1111 W
b1111 /
b1111 K
b1111 X
b111111111011111010100111110111101010110110111110111011111111 0
b111111111011111010100111110111101010110110111110111011111111 C
b111111111011111010100111110111101010110110111110111011111111 J
#1020000
1#
#1080000
b1001 '
0#
#1083000
b0xxxx :
b0xxxx L
b10000 9
b10000 H
b10000 R
b10000 S
b11 +
b11 Q
b11 V
b111 ?
b111 D
b111 U
1;
0.
x7
11
b1100 ,
b1100 N
b10001100 P
b10110100000 3
b10110100000 T
b100 -
b100 M
b100000 4
b100000 G
b100000 I
b10110100000000000000000010001100 8
b10110100000000000000000010001100 ]
b11100 !
b11100 A
b11100 F
b11100 \
#1085000
bx 0
bx C
bx J
#1140000
1#
#1200000
b1010 '
0#
#1203000
x)
bx =
bx E
bx W
bx :
bx L
bx +
bx Q
bx V
b10 ?
b10 D
b10 U
0;
1.
07
01
b1001 ,
b1001 N
b11000010010000000110101101 P
b10001011000 3
b10001011000 T
b1101 -
b1101 M
b1101 2
b1101 O
b100100 4
b100100 G
b100100 I
b10001011000010010000000110101101 8
b10001011000010010000000110101101 ]
b100000 !
b100000 A
b100000 F
b100000 \
#1205000
0)
b1 :
b1 L
b1 >
b1 B
b1 =
b1 E
b1 W
b1 /
b1 K
b1 X
b0 0
b0 C
b0 J
#1260000
1#
#1320000
b1011 '
0#
#1323000
b1111111111111111111111111111111111111111111111111111111111111111 :
b1111111111111111111111111111111111111111111111111111111111111111 L
b1111111111111111111111111111111111111111111111111111111111111111 =
b1111111111111111111111111111111111111111111111111111111111111111 E
b1111111111111111111111111111111111111111111111111111111111111111 W
b110 ?
b110 D
b110 U
b11000010010000000110001100 P
b11001011000 3
b11001011000 T
b1100 -
b1100 M
b1100 2
b1100 O
b101000 4
b101000 G
b101000 I
b11001011000010010000000110001100 8
b11001011000010010000000110001100 ]
b100100 !
b100100 A
b100100 F
b100100 \
#1325000
b1110 :
b1110 L
b1110 =
b1110 E
b1110 W
b1111 0
b1111 C
b1111 J
#1380000
1#
#1440000
b1100 '
0#
#1443000
b0xxx0 :
b0xxx0 L
bx0x0x >
bx0x0x B
b1111111111111111111111111111111111111111111111111111111111110100 9
b1111111111111111111111111111111111111111111111111111111111110100 H
b1111111111111111111111111111111111111111111111111111111111110100 R
b1111111111111111111111111111111111111111111111111111111111110100 S
b10 +
b10 Q
b10 V
bx ?
bx D
bx U
1*
x;
0.
x7
x<
x1
b111x1 ,
b111x1 N
b11111111111111111111111101 P
b10111111 3
b10111111 T
b11111 -
b11111 M
b11101 2
b11101 O
b11100 4
b11100 G
b11100 I
b10111111111111111111111111101 8
b10111111111111111111111111101 ]
b101000 !
b101000 A
b101000 F
b101000 \
#1445000
bx >
bx B
bx /
bx K
bx X
b0 0
b0 C
b0 J
#1500000
1#
#1560000
b1101 '
0#
#1563000
x)
bx :
bx L
bx =
bx E
bx W
b10000 9
b10000 H
b10000 R
b10000 S
b11 +
b11 Q
b11 V
b111 ?
b111 D
b111 U
0*
1;
0<
11
b1100 ,
b1100 N
b10001100 P
b10110100000 3
b10110100000 T
b100 -
b100 M
b1100 2
b1100 O
b100000 4
b100000 G
b100000 I
b10110100000000000000000010001100 8
b10110100000000000000000010001100 ]
b11100 !
b11100 A
b11100 F
b11100 \
#1565000
0)
b0xxx0 :
b0xxx0 L
b1110 =
b1110 E
b1110 W
b1110 >
b1110 B
b1110 /
b1110 K
b1110 X
bx 0
bx C
bx J
#1620000
1#
#1680000
b1110 '
0#
#1683000
x)
bx =
bx E
bx W
bx :
bx L
bx +
bx Q
bx V
b10 ?
b10 D
b10 U
0;
1.
07
01
b1001 ,
b1001 N
b11000010010000000110101101 P
b10001011000 3
b10001011000 T
b1101 -
b1101 M
b1101 2
b1101 O
b100100 4
b100100 G
b100100 I
b10001011000010010000000110101101 8
b10001011000010010000000110101101 ]
b100000 !
b100000 A
b100000 F
b100000 \
#1685000
0)
b10 :
b10 L
b1 >
b1 B
b10 =
b10 E
b10 W
b1 /
b1 K
b1 X
b1 0
b1 C
b1 J
#1740000
1#
#1800000
b1111 '
0#
#1803000
1)
b0 :
b0 L
b0 =
b0 E
b0 W
b110 ?
b110 D
b110 U
b11000010010000000110001100 P
b11001011000 3
b11001011000 T
b1100 -
b1100 M
b1100 2
b1100 O
b101000 4
b101000 G
b101000 I
b11001011000010010000000110001100 8
b11001011000010010000000110001100 ]
b100100 !
b100100 A
b100100 F
b100100 \
#1805000
0)
b1101 :
b1101 L
b1101 =
b1101 E
b1101 W
b1110 0
b1110 C
b1110 J
#1860000
1#
#1920000
b10000 '
0#
#1923000
b0xx0x :
b0xx0x L
bx0x0x >
bx0x0x B
b1111111111111111111111111111111111111111111111111111111111110100 9
b1111111111111111111111111111111111111111111111111111111111110100 H
b1111111111111111111111111111111111111111111111111111111111110100 R
b1111111111111111111111111111111111111111111111111111111111110100 S
b10 +
b10 Q
b10 V
bx ?
bx D
bx U
1*
x;
0.
x7
x<
x1
b111x1 ,
b111x1 N
b11111111111111111111111101 P
b10111111 3
b10111111 T
b11111 -
b11111 M
b11101 2
b11101 O
b11100 4
b11100 G
b11100 I
b10111111111111111111111111101 8
b10111111111111111111111111101 ]
b101000 !
b101000 A
b101000 F
b101000 \
#1925000
bx >
bx B
bx /
bx K
bx X
b0 0
b0 C
b0 J
#1980000
1#
#2040000
b10001 '
0#
#2043000
x)
bx :
bx L
bx =
bx E
bx W
b10000 9
b10000 H
b10000 R
b10000 S
b11 +
b11 Q
b11 V
b111 ?
b111 D
b111 U
0*
1;
0<
11
b1100 ,
b1100 N
b10001100 P
b10110100000 3
b10110100000 T
b100 -
b100 M
b1100 2
b1100 O
b100000 4
b100000 G
b100000 I
b10110100000000000000000010001100 8
b10110100000000000000000010001100 ]
b11100 !
b11100 A
b11100 F
b11100 \
#2045000
0)
b0xx0x :
b0xx0x L
b1101 =
b1101 E
b1101 W
b1101 >
b1101 B
b1101 /
b1101 K
b1101 X
bx 0
bx C
bx J
#2100000
1#
#2160000
b10010 '
0#
#2163000
x)
bx =
bx E
bx W
bx :
bx L
bx +
bx Q
bx V
b10 ?
b10 D
b10 U
0;
1.
07
01
b1001 ,
b1001 N
b11000010010000000110101101 P
b10001011000 3
b10001011000 T
b1101 -
b1101 M
b1101 2
b1101 O
b100100 4
b100100 G
b100100 I
b10001011000010010000000110101101 8
b10001011000010010000000110101101 ]
b100000 !
b100000 A
b100000 F
b100000 \
#2165000
0)
b11 :
b11 L
b1 >
b1 B
b11 =
b11 E
b11 W
b1 /
b1 K
b1 X
b10 0
b10 C
b10 J
#2220000
1#
#2280000
b10011 '
0#
#2283000
b1 :
b1 L
b1 =
b1 E
b1 W
b110 ?
b110 D
b110 U
b11000010010000000110001100 P
b11001011000 3
b11001011000 T
b1100 -
b1100 M
b1100 2
b1100 O
b101000 4
b101000 G
b101000 I
b11001011000010010000000110001100 8
b11001011000010010000000110001100 ]
b100100 !
b100100 A
b100100 F
b100100 \
#2285000
b1100 :
b1100 L
b1100 =
b1100 E
b1100 W
b1101 0
b1101 C
b1101 J
#2340000
1#
#2400000
b10100 '
0#
#2403000
b0xx00 :
b0xx00 L
bx0x0x >
bx0x0x B
b1111111111111111111111111111111111111111111111111111111111110100 9
b1111111111111111111111111111111111111111111111111111111111110100 H
b1111111111111111111111111111111111111111111111111111111111110100 R
b1111111111111111111111111111111111111111111111111111111111110100 S
b10 +
b10 Q
b10 V
bx ?
bx D
bx U
1*
x;
0.
x7
x<
x1
b111x1 ,
b111x1 N
b11111111111111111111111101 P
b10111111 3
b10111111 T
b11111 -
b11111 M
b11101 2
b11101 O
b11100 4
b11100 G
b11100 I
b10111111111111111111111111101 8
b10111111111111111111111111101 ]
b101000 !
b101000 A
b101000 F
b101000 \
#2405000
bx >
bx B
bx /
bx K
bx X
b0 0
b0 C
b0 J
#2460000
1#
#2520000
b10101 '
0#
#2523000
x)
bx :
bx L
bx =
bx E
bx W
b10000 9
b10000 H
b10000 R
b10000 S
b11 +
b11 Q
b11 V
b111 ?
b111 D
b111 U
0*
1;
0<
11
b1100 ,
b1100 N
b10001100 P
b10110100000 3
b10110100000 T
b100 -
b100 M
b1100 2
b1100 O
b100000 4
b100000 G
b100000 I
b10110100000000000000000010001100 8
b10110100000000000000000010001100 ]
b11100 !
b11100 A
b11100 F
b11100 \
#2525000
0)
b0xx00 :
b0xx00 L
b1100 =
b1100 E
b1100 W
b1100 >
b1100 B
b1100 /
b1100 K
b1100 X
bx 0
bx C
bx J
#2580000
1#
#2640000
b10110 '
0#
#2643000
x)
bx =
bx E
bx W
bx :
bx L
bx +
bx Q
bx V
b10 ?
b10 D
b10 U
0;
1.
07
01
b1001 ,
b1001 N
b11000010010000000110101101 P
b10001011000 3
b10001011000 T
b1101 -
b1101 M
b1101 2
b1101 O
b100100 4
b100100 G
b100100 I
b10001011000010010000000110101101 8
b10001011000010010000000110101101 ]
b100000 !
b100000 A
b100000 F
b100000 \
#2645000
0)
b100 :
b100 L
b1 >
b1 B
b100 =
b100 E
b100 W
b1 /
b1 K
b1 X
b11 0
b11 C
b11 J
#2700000
1#
#2760000
b10111 '
0#
#2763000
b10 :
b10 L
b10 =
b10 E
b10 W
b110 ?
b110 D
b110 U
b11000010010000000110001100 P
b11001011000 3
b11001011000 T
b1100 -
b1100 M
b1100 2
b1100 O
b101000 4
b101000 G
b101000 I
b11001011000010010000000110001100 8
b11001011000010010000000110001100 ]
b100100 !
b100100 A
b100100 F
b100100 \
#2765000
b1011 :
b1011 L
b1011 =
b1011 E
b1011 W
b1100 0
b1100 C
b1100 J
#2820000
1#
#2880000
b11000 '
0#
#2883000
b0x0xx :
b0x0xx L
bx0x0x >
bx0x0x B
b1111111111111111111111111111111111111111111111111111111111110100 9
b1111111111111111111111111111111111111111111111111111111111110100 H
b1111111111111111111111111111111111111111111111111111111111110100 R
b1111111111111111111111111111111111111111111111111111111111110100 S
b10 +
b10 Q
b10 V
bx ?
bx D
bx U
1*
x;
0.
x7
x<
x1
b111x1 ,
b111x1 N
b11111111111111111111111101 P
b10111111 3
b10111111 T
b11111 -
b11111 M
b11101 2
b11101 O
b11100 4
b11100 G
b11100 I
b10111111111111111111111111101 8
b10111111111111111111111111101 ]
b101000 !
b101000 A
b101000 F
b101000 \
#2885000
bx >
bx B
bx /
bx K
bx X
b0 0
b0 C
b0 J
#2940000
1#
#3000000
b11001 '
0#
#3003000
x)
bx :
bx L
bx =
bx E
bx W
b10000 9
b10000 H
b10000 R
b10000 S
b11 +
b11 Q
b11 V
b111 ?
b111 D
b111 U
0*
1;
0<
11
b1100 ,
b1100 N
b10001100 P
b10110100000 3
b10110100000 T
b100 -
b100 M
b1100 2
b1100 O
b100000 4
b100000 G
b100000 I
b10110100000000000000000010001100 8
b10110100000000000000000010001100 ]
b11100 !
b11100 A
b11100 F
b11100 \
#3005000
0)
b0x0xx :
b0x0xx L
b1011 =
b1011 E
b1011 W
b1011 >
b1011 B
b1011 /
b1011 K
b1011 X
bx 0
bx C
bx J
#3060000
1#
#3120000
b11010 '
0#
#3123000
x)
bx =
bx E
bx W
bx :
bx L
bx +
bx Q
bx V
b10 ?
b10 D
b10 U
0;
1.
07
01
b1001 ,
b1001 N
b11000010010000000110101101 P
b10001011000 3
b10001011000 T
b1101 -
b1101 M
b1101 2
b1101 O
b100100 4
b100100 G
b100100 I
b10001011000010010000000110101101 8
b10001011000010010000000110101101 ]
b100000 !
b100000 A
b100000 F
b100000 \
#3125000
0)
b101 :
b101 L
b1 >
b1 B
b101 =
b101 E
b101 W
b1 /
b1 K
b1 X
b100 0
b100 C
b100 J
#3180000
1#
#3240000
b11011 '
0#
#3243000
b11 :
b11 L
b11 =
b11 E
b11 W
b110 ?
b110 D
b110 U
b11000010010000000110001100 P
b11001011000 3
b11001011000 T
b1100 -
b1100 M
b1100 2
b1100 O
b101000 4
b101000 G
b101000 I
b11001011000010010000000110001100 8
b11001011000010010000000110001100 ]
b100100 !
b100100 A
b100100 F
b100100 \
#3245000
b1010 :
b1010 L
b1010 =
b1010 E
b1010 W
b1011 0
b1011 C
b1011 J
#3300000
1#
#3360000
b11100 '
0#
#3363000
b0x0x0 :
b0x0x0 L
bx0x0x >
bx0x0x B
b1111111111111111111111111111111111111111111111111111111111110100 9
b1111111111111111111111111111111111111111111111111111111111110100 H
b1111111111111111111111111111111111111111111111111111111111110100 R
b1111111111111111111111111111111111111111111111111111111111110100 S
b10 +
b10 Q
b10 V
bx ?
bx D
bx U
1*
x;
0.
x7
x<
x1
b111x1 ,
b111x1 N
b11111111111111111111111101 P
b10111111 3
b10111111 T
b11111 -
b11111 M
b11101 2
b11101 O
b11100 4
b11100 G
b11100 I
b10111111111111111111111111101 8
b10111111111111111111111111101 ]
b101000 !
b101000 A
b101000 F
b101000 \
#3365000
bx >
bx B
bx /
bx K
bx X
b0 0
b0 C
b0 J
#3420000
1#
#3480000
b11101 '
0#
#3483000
x)
bx :
bx L
bx =
bx E
bx W
b10000 9
b10000 H
b10000 R
b10000 S
b11 +
b11 Q
b11 V
b111 ?
b111 D
b111 U
0*
1;
0<
11
b1100 ,
b1100 N
b10001100 P
b10110100000 3
b10110100000 T
b100 -
b100 M
b1100 2
b1100 O
b100000 4
b100000 G
b100000 I
b10110100000000000000000010001100 8
b10110100000000000000000010001100 ]
b11100 !
b11100 A
b11100 F
b11100 \
#3485000
0)
b0x0x0 :
b0x0x0 L
b1010 =
b1010 E
b1010 W
b1010 >
b1010 B
b1010 /
b1010 K
b1010 X
bx 0
bx C
bx J
#3540000
1#
#3600000
b11110 '
0#
#3603000
x)
bx =
bx E
bx W
bx :
bx L
bx +
bx Q
bx V
b10 ?
b10 D
b10 U
0;
1.
07
01
b1001 ,
b1001 N
b11000010010000000110101101 P
b10001011000 3
b10001011000 T
b1101 -
b1101 M
b1101 2
b1101 O
b100100 4
b100100 G
b100100 I
b10001011000010010000000110101101 8
b10001011000010010000000110101101 ]
b100000 !
b100000 A
b100000 F
b100000 \
#3605000
0)
b110 :
b110 L
b1 >
b1 B
b110 =
b110 E
b110 W
b1 /
b1 K
b1 X
b101 0
b101 C
b101 J
#3660000
1#
#3720000
b11111 '
0#
#3723000
b100 :
b100 L
b100 =
b100 E
b100 W
b110 ?
b110 D
b110 U
b11000010010000000110001100 P
b11001011000 3
b11001011000 T
b1100 -
b1100 M
b1100 2
b1100 O
b101000 4
b101000 G
b101000 I
b11001011000010010000000110001100 8
b11001011000010010000000110001100 ]
b100100 !
b100100 A
b100100 F
b100100 \
#3725000
b1001 :
b1001 L
b1001 =
b1001 E
b1001 W
b1010 0
b1010 C
b1010 J
#3780000
1#
#3840000
b100000 '
0#
#3843000
b0x00x :
b0x00x L
bx0x0x >
bx0x0x B
b1111111111111111111111111111111111111111111111111111111111110100 9
b1111111111111111111111111111111111111111111111111111111111110100 H
b1111111111111111111111111111111111111111111111111111111111110100 R
b1111111111111111111111111111111111111111111111111111111111110100 S
b10 +
b10 Q
b10 V
bx ?
bx D
bx U
1*
x;
0.
x7
x<
x1
b111x1 ,
b111x1 N
b11111111111111111111111101 P
b10111111 3
b10111111 T
b11111 -
b11111 M
b11101 2
b11101 O
b11100 4
b11100 G
b11100 I
b10111111111111111111111111101 8
b10111111111111111111111111101 ]
b101000 !
b101000 A
b101000 F
b101000 \
#3845000
bx >
bx B
bx /
bx K
bx X
b0 0
b0 C
b0 J
#3900000
1#
#3960000
b100001 '
0#
#3963000
x)
bx :
bx L
bx =
bx E
bx W
b10000 9
b10000 H
b10000 R
b10000 S
b11 +
b11 Q
b11 V
b111 ?
b111 D
b111 U
0*
1;
0<
11
b1100 ,
b1100 N
b10001100 P
b10110100000 3
b10110100000 T
b100 -
b100 M
b1100 2
b1100 O
b100000 4
b100000 G
b100000 I
b10110100000000000000000010001100 8
b10110100000000000000000010001100 ]
b11100 !
b11100 A
b11100 F
b11100 \
#3965000
0)
b0x00x :
b0x00x L
b1001 =
b1001 E
b1001 W
b1001 >
b1001 B
b1001 /
b1001 K
b1001 X
bx 0
bx C
bx J
#4020000
1#
#4080000
b100010 '
0#
#4083000
x)
bx =
bx E
bx W
bx :
bx L
bx +
bx Q
bx V
b10 ?
b10 D
b10 U
0;
1.
07
01
b1001 ,
b1001 N
b11000010010000000110101101 P
b10001011000 3
b10001011000 T
b1101 -
b1101 M
b1101 2
b1101 O
b100100 4
b100100 G
b100100 I
b10001011000010010000000110101101 8
b10001011000010010000000110101101 ]
b100000 !
b100000 A
b100000 F
b100000 \
#4085000
0)
b111 :
b111 L
b1 >
b1 B
b111 =
b111 E
b111 W
b1 /
b1 K
b1 X
b110 0
b110 C
b110 J
#4140000
1#
#4200000
b100011 '
0#
#4203000
b101 :
b101 L
b101 =
b101 E
b101 W
b110 ?
b110 D
b110 U
b11000010010000000110001100 P
b11001011000 3
b11001011000 T
b1100 -
b1100 M
b1100 2
b1100 O
b101000 4
b101000 G
b101000 I
b11001011000010010000000110001100 8
b11001011000010010000000110001100 ]
b100100 !
b100100 A
b100100 F
b100100 \
#4205000
b1000 :
b1000 L
b1000 =
b1000 E
b1000 W
b1001 0
b1001 C
b1001 J
#4260000
1#
#4320000
b100100 '
0#
#4323000
b0x000 :
b0x000 L
bx0x0x >
bx0x0x B
b1111111111111111111111111111111111111111111111111111111111110100 9
b1111111111111111111111111111111111111111111111111111111111110100 H
b1111111111111111111111111111111111111111111111111111111111110100 R
b1111111111111111111111111111111111111111111111111111111111110100 S
b10 +
b10 Q
b10 V
bx ?
bx D
bx U
1*
x;
0.
x7
x<
x1
b111x1 ,
b111x1 N
b11111111111111111111111101 P
b10111111 3
b10111111 T
b11111 -
b11111 M
b11101 2
b11101 O
b11100 4
b11100 G
b11100 I
b10111111111111111111111111101 8
b10111111111111111111111111101 ]
b101000 !
b101000 A
b101000 F
b101000 \
#4325000
bx >
bx B
bx /
bx K
bx X
b0 0
b0 C
b0 J
#4380000
1#
#4440000
b100101 '
0#
#4443000
x)
bx :
bx L
bx =
bx E
bx W
b10000 9
b10000 H
b10000 R
b10000 S
b11 +
b11 Q
b11 V
b111 ?
b111 D
b111 U
0*
1;
0<
11
b1100 ,
b1100 N
b10001100 P
b10110100000 3
b10110100000 T
b100 -
b100 M
b1100 2
b1100 O
b100000 4
b100000 G
b100000 I
b10110100000000000000000010001100 8
b10110100000000000000000010001100 ]
b11100 !
b11100 A
b11100 F
b11100 \
#4445000
0)
b0x000 :
b0x000 L
b1000 =
b1000 E
b1000 W
b1000 >
b1000 B
b1000 /
b1000 K
b1000 X
bx 0
bx C
bx J
#4500000
1#
#4560000
b100110 '
0#
#4563000
x)
bx =
bx E
bx W
bx :
bx L
bx +
bx Q
bx V
b10 ?
b10 D
b10 U
0;
1.
07
01
b1001 ,
b1001 N
b11000010010000000110101101 P
b10001011000 3
b10001011000 T
b1101 -
b1101 M
b1101 2
b1101 O
b100100 4
b100100 G
b100100 I
b10001011000010010000000110101101 8
b10001011000010010000000110101101 ]
b100000 !
b100000 A
b100000 F
b100000 \
#4565000
0)
b1000 :
b1000 L
b1 >
b1 B
b1000 =
b1000 E
b1000 W
b1 /
b1 K
b1 X
b111 0
b111 C
b111 J
#4620000
1#
#4680000
b100111 '
0#
#4683000
b110 :
b110 L
b110 =
b110 E
b110 W
b110 ?
b110 D
b110 U
b11000010010000000110001100 P
b11001011000 3
b11001011000 T
b1100 -
b1100 M
b1100 2
b1100 O
b101000 4
b101000 G
b101000 I
b11001011000010010000000110001100 8
b11001011000010010000000110001100 ]
b100100 !
b100100 A
b100100 F
b100100 \
#4685000
b111 :
b111 L
b111 =
b111 E
b111 W
b1000 0
b1000 C
b1000 J
#4740000
1#
#4800000
b101000 '
0#
#4803000
b0xxx :
b0xxx L
bx0x0x >
bx0x0x B
b1111111111111111111111111111111111111111111111111111111111110100 9
b1111111111111111111111111111111111111111111111111111111111110100 H
b1111111111111111111111111111111111111111111111111111111111110100 R
b1111111111111111111111111111111111111111111111111111111111110100 S
b10 +
b10 Q
b10 V
bx ?
bx D
bx U
1*
x;
0.
x7
x<
x1
b111x1 ,
b111x1 N
b11111111111111111111111101 P
b10111111 3
b10111111 T
b11111 -
b11111 M
b11101 2
b11101 O
b11100 4
b11100 G
b11100 I
b10111111111111111111111111101 8
b10111111111111111111111111101 ]
b101000 !
b101000 A
b101000 F
b101000 \
#4805000
bx >
bx B
bx /
bx K
bx X
b0 0
b0 C
b0 J
#4860000
1#
#4920000
b101001 '
0#
#4923000
x)
bx :
bx L
bx =
bx E
bx W
b10000 9
b10000 H
b10000 R
b10000 S
b11 +
b11 Q
b11 V
b111 ?
b111 D
b111 U
0*
1;
0<
11
b1100 ,
b1100 N
b10001100 P
b10110100000 3
b10110100000 T
b100 -
b100 M
b1100 2
b1100 O
b100000 4
b100000 G
b100000 I
b10110100000000000000000010001100 8
b10110100000000000000000010001100 ]
b11100 !
b11100 A
b11100 F
b11100 \
#4925000
0)
b0xxx :
b0xxx L
b111 =
b111 E
b111 W
b111 >
b111 B
b111 /
b111 K
b111 X
bx 0
bx C
bx J
#4980000
1#
#5040000
b101010 '
0#
#5043000
x)
bx =
bx E
bx W
bx :
bx L
bx +
bx Q
bx V
b10 ?
b10 D
b10 U
0;
1.
07
01
b1001 ,
b1001 N
b11000010010000000110101101 P
b10001011000 3
b10001011000 T
b1101 -
b1101 M
b1101 2
b1101 O
b100100 4
b100100 G
b100100 I
b10001011000010010000000110101101 8
b10001011000010010000000110101101 ]
b100000 !
b100000 A
b100000 F
b100000 \
#5045000
0)
b1001 :
b1001 L
b1 >
b1 B
b1001 =
b1001 E
b1001 W
b1 /
b1 K
b1 X
b1000 0
b1000 C
b1000 J
#5100000
1#
#5160000
b101011 '
0#
